{
  "_comment": "Generated using Husky's JSON Generator v1 v1.",
  "parent": "th2:item/cube_overlay_all",
  "textures": {
    "overlay": "th2:blocks/runes/hagalaz",
    "all": "th2:blocks/rune_stone"
  }
}