{
  "forge_marker": 1,
  "defaults": {
    "model": "cube_all",
    "transform": "forge:default-block",
    "textures": {
      "all": "th2:blocks/leaves_eternal_oak"
    }
  },
  "variants": {
    "chech_decay": {
      "true": {},
      "false": {}
    },
    "decayable": {
      "true": {},
      "false": {}
    }
  }
}