{
  "forge_marker": 1,
  "defaults": {
    "model": "cube_all",
    "transform": "forge:default-block"
  },
  "variants": {
    "normal": [
      {
        "model": "th2:pedestal"
      }
    ],
    "inventory": [
      {}
    ]
  }
}