{
  "forge_marker": 1,
  "defaults": {
    "model": "cross",
    "textures": {
      "all": "th2:saplings/weirwood_sapling",
      "particle": "th2:saplings/weirwood_sapling"
    }
  },
  "variants": {
    "normal": [
      {}
    ],
    "inventory": [
      {}
    ],
    "stage=0": [
      {}
    ],
    "stage=1": [
      {}
    ]
  }
}