{
  "forge_marker": 1,
  "defaults": {
    "transform": "forge:default-block",
    "model": "cube_column",
    "textures": {
      "end": "th2:blocks/log_thornwyrd_top",
      "side": "th2:blocks/log_thornwyrd"
    }
  },
  "variants": {
    "axis": {
      "y": {},
      "x": {
        "x": 90,
        "y": 90
      },
      "z": {
        "x": 90
      },
      "none": {
        "model": "cube_all",
        "textures": {
          "all": "th2:blocks/log_thornwyrd"
        }
      }
    },
    "inventory": [{}]
  }
}