{
  "_comment": "Generated using Husky's JSON Generator v1.",
  "variants": {
    "normal": {
      "model": "th2:runes_1unknown_z"
    },
    "all": {
      "model": "th2:runes_1unknown_z"
    }
  }
}