{
	"credit": "Made with Blockbench, a free, modern block model editor by JannisX11",
	"textures": {
		"0": "blocks/book_stand",
		"particle": "blocks/book_stand"
	},
	"elements": [
		{
			"name": "cube",
			"from": [1, 0, 1],
			"to": [15, 1, 15],
			"faces": {
				"north": {
					"uv": [0, 0, 7.999440765380859, 0.99856595993042],
					"texture": "#0"
				},
				"east": {
					"uv": [0, 0, 7.999440765380859, 0.99856595993042],
					"texture": "#0"
				},
				"south": {
					"uv": [0, 0, 7.999440765380859, 0.99856595993042],
					"texture": "#0"
				},
				"west": {
					"uv": [0, 0, 7.999440765380859, 0.99856595993042],
					"texture": "#0"
				},
				"up": {
					"uv": [0, 0, 7.999440765380859, 7.998531341552734],
					"texture": "#0"
				},
				"down": {
					"uv": [0, 0, 7.999440765380859, 7.998531341552734],
					"texture": "#0"
				}
			},
			"type": "cube"
		},
		{
			"name": "cube",
			"from": [
				3.0090000000000003,
				17.3,
				11.399999999999999
			],
			"to": [12.999, 18.3, 17.4],
			"faces": {
				"north": {
					"uv": [
						0,
						0,
						7.999440765380859,
						1.9989507675170899
					],
					"texture": "#0"
				},
				"east": {
					"uv": [
						0,
						0,
						7.999440765380859,
						1.9989507675170899
					],
					"texture": "#0"
				},
				"south": {
					"uv": [
						0,
						0,
						7.999440765380859,
						1.9989507675170899
					],
					"texture": "#0"
				},
				"west": {
					"uv": [
						0,
						0,
						7.999440765380859,
						1.9989507675170899
					],
					"texture": "#0"
				},
				"up": {
					"uv": [
						0,
						0,
						7.999440765380859,
						1.9989507675170899
					],
					"texture": "#0"
				},
				"down": {
					"uv": [
						0,
						0,
						7.999440765380859,
						1.9989507675170899
					],
					"texture": "#0"
				}
			},
			"rotation": {
				"origin": [8, 12.3, 14.399999999999999],
				"axis": "x",
				"angle": -45
			},
			"type": "cube"
		},
		{
			"name": "cube",
			"from": [
				3.0090000000000003,
				20.200000000000003,
				18.4
			],
			"to": [12.999, 21.3, 19.099999999999998],
			"faces": {
				"north": {
					"uv": [
						0,
						0,
						7.999440765380859,
						1.9989507675170899
					],
					"texture": "#0"
				},
				"east": {
					"uv": [
						0,
						0,
						7.999440765380859,
						1.9989507675170899
					],
					"texture": "#0"
				},
				"south": {
					"uv": [
						0,
						0,
						7.999440765380859,
						1.9989507675170899
					],
					"texture": "#0"
				},
				"west": {
					"uv": [
						0,
						0,
						7.999440765380859,
						1.9989507675170899
					],
					"texture": "#0"
				},
				"up": {
					"uv": [
						0,
						0,
						7.999440765380859,
						1.9989507675170899
					],
					"texture": "#0"
				},
				"down": {
					"uv": [
						0,
						0,
						7.999440765380859,
						1.9989507675170899
					],
					"texture": "#0"
				}
			},
			"rotation": {
				"origin": [8, 12.3, 14.399999999999999],
				"axis": "x",
				"angle": -45
			},
			"type": "cube"
		},
		{
			"name": "cube",
			"from": [
				3.0090000000000003,
				18.3,
				10.399999999999999
			],
			"to": [12.999, 21.3, 18.4],
			"faces": {
				"north": {
					"uv": [
						0,
						0,
						7.999440765380859,
						1.9989507675170899
					],
					"texture": "#0"
				},
				"east": {
					"uv": [
						0,
						0,
						7.999440765380859,
						1.9989507675170899
					],
					"texture": "#0"
				},
				"south": {
					"uv": [
						0,
						0,
						7.999440765380859,
						1.9989507675170899
					],
					"texture": "#0"
				},
				"west": {
					"uv": [
						0,
						0,
						7.999440765380859,
						1.9989507675170899
					],
					"texture": "#0"
				},
				"up": {
					"uv": [
						0,
						0,
						7.999440765380859,
						1.9989507675170899
					],
					"texture": "#0"
				},
				"down": {
					"uv": [
						0,
						0,
						7.999440765380859,
						1.9989507675170899
					],
					"texture": "#0"
				}
			},
			"rotation": {
				"origin": [8, 12.3, 14.399999999999999],
				"axis": "x",
				"angle": -45
			},
			"type": "cube"
		},
		{
			"name": "cube",
			"from": [
				1.1999999999999993,
				21.5,
				7.049999999999999
			],
			"to": [14.8, 23.05, 8.149999999999999],
			"faces": {
				"north": {
					"uv": [
						8.00055923461914,
						0,
						16,
						0.9976565361022949
					],
					"texture": "#0"
				},
				"east": {
					"uv": [
						8.00055923461914,
						0,
						16,
						0.9976565361022949
					],
					"texture": "#0"
				},
				"south": {
					"uv": [
						8.00055923461914,
						0,
						16,
						0.9976565361022949
					],
					"texture": "#0"
				},
				"west": {
					"uv": [
						8.00055923461914,
						0,
						16,
						0.9976565361022949
					],
					"texture": "#0"
				},
				"up": {
					"uv": [
						8.00055923461914,
						0,
						16,
						0.9976565361022949
					],
					"texture": "#0"
				},
				"down": {
					"uv": [
						8.00055923461914,
						0,
						16,
						0.9976565361022949
					],
					"texture": "#0"
				}
			},
			"rotation": {
				"origin": [8, 12.3, 14.399999999999999],
				"axis": "x",
				"angle": -45
			},
			"type": "cube"
		},
		{
			"name": "cube",
			"from": [1, 21.3, 6.799999999999999],
			"to": [15, 22.3, 21.4],
			"faces": {
				"north": {
					"uv": [
						0,
						5.999581146240234,
						7.999440765380859,
						6.997237682342529
					],
					"texture": "#0"
				},
				"east": {
					"uv": [0, 0, 0.99856595993042, 7.998531341552734],
					"texture": "#0",
					"rotation": 90
				},
				"south": {
					"uv": [0, 1.5, 7.999440765380859, 2],
					"texture": "#0"
				},
				"west": {
					"uv": [0, 0, 0.99856595993042, 7.998531341552734],
					"texture": "#0",
					"rotation": 270
				},
				"up": {
					"uv": [0, 0, 7.999440765380859, 7.998531341552734],
					"texture": "#0"
				},
				"down": {
					"uv": [0, 0, 7.999440765380859, 7.998531341552734],
					"texture": "#0"
				}
			},
			"rotation": {
				"origin": [8, 12.3, 14.399999999999999],
				"axis": "x",
				"angle": -45
			},
			"type": "cube"
		},
		{
			"name": "cube",
			"from": [3, 15, 4.4],
			"to": [13, 16.4, 11],
			"faces": {
				"north": {
					"uv": [
						0,
						3.3,
						2.9984262466430662,
						3.9999999999999996
					],
					"texture": "#0"
				},
				"east": {
					"uv": [
						0,
						3.3,
						2.9984262466430662,
						3.9999999999999996
					],
					"texture": "#0"
				},
				"south": {
					"uv": [
						0,
						3.3,
						2.9984262466430662,
						3.9999999999999996
					],
					"texture": "#0"
				},
				"west": {
					"uv": [
						0,
						3.3,
						2.9984262466430662,
						3.9999999999999996
					],
					"texture": "#0"
				},
				"up": {
					"uv": [
						0,
						3.3,
						2.9984262466430662,
						3.9999999999999996
					],
					"texture": "#0"
				},
				"down": {
					"uv": [
						0,
						3.3,
						2.9984262466430662,
						3.9999999999999996
					],
					"texture": "#0"
				}
			},
			"type": "cube"
		},
		{
			"name": "cube",
			"from": [3, 23, 11.6],
			"to": [13, 23.6, 13],
			"faces": {
				"north": {
					"uv": [0, 1.5, 7.999440765380859, 2],
					"texture": "#0"
				},
				"east": {
					"uv": [0, 1.5, 7.999440765380859, 2],
					"texture": "#0"
				},
				"south": {
					"uv": [0, 1.5, 7.999440765380859, 2],
					"texture": "#0"
				},
				"west": {
					"uv": [0, 1.5, 7.999440765380859, 2],
					"texture": "#0"
				},
				"up": {
					"uv": [0, 1.5, 7.999440765380859, 2],
					"texture": "#0"
				},
				"down": {
					"uv": [0, 1.5, 7.999440765380859, 2],
					"texture": "#0"
				}
			},
			"type": "cube"
		},
		{
			"name": "cube",
			"from": [3, 15, 11],
			"to": [13, 23, 12],
			"faces": {
				"north": {
					"uv": [
						0,
						1.9998603820800782,
						0.9994753837585449,
						5.999580764770508
					],
					"texture": "#0"
				},
				"east": {
					"uv": [
						0,
						1.9998603820800782,
						0.9994753837585449,
						5.999580764770508
					],
					"texture": "#0"
				},
				"south": {
					"uv": [
						0,
						1.9998603820800782,
						0.9994753837585449,
						5.999580764770508
					],
					"texture": "#0"
				},
				"west": {
					"uv": [
						0,
						1.9998603820800782,
						0.9994753837585449,
						5.999580764770508
					],
					"texture": "#0"
				},
				"up": {
					"uv": [
						0,
						1.9998603820800782,
						0.9994753837585449,
						5.999580764770508
					],
					"texture": "#0"
				},
				"down": {
					"uv": [
						0,
						1.9998603820800782,
						0.9994753837585449,
						5.999580764770508
					],
					"texture": "#0"
				}
			},
			"type": "cube"
		},
		{
			"name": "cube",
			"from": [4, 15, 11],
			"to": [12, 23, 13],
			"faces": {
				"north": {
					"uv": [
						0,
						1.9998603820800782,
						3.9997203826904295,
						5.999580764770508
					],
					"texture": "#0"
				},
				"east": {
					"uv": [
						0,
						1.9998603820800782,
						3.9997203826904295,
						5.999580764770508
					],
					"texture": "#0"
				},
				"south": {
					"uv": [
						0,
						1.9998603820800782,
						3.9997203826904295,
						5.999580764770508
					],
					"texture": "#0"
				},
				"west": {
					"uv": [
						0,
						1.9998603820800782,
						3.9997203826904295,
						5.999580764770508
					],
					"texture": "#0"
				},
				"up": {
					"uv": [
						0,
						1.9998603820800782,
						3.9997203826904295,
						5.999580764770508
					],
					"texture": "#0"
				},
				"down": {
					"uv": [
						0,
						1.9998603820800782,
						3.9997203826904295,
						5.999580764770508
					],
					"texture": "#0"
				}
			},
			"type": "cube"
		},
		{
			"name": "cube",
			"from": [4.25, 6.5, 2.6000000000000014],
			"to": [6.25, 7.75, 5],
			"faces": {
				"north": {
					"uv": [
						0,
						14.999407196044922,
						1.4987584114074708,
						15.997063732147216
					],
					"texture": "#0"
				},
				"east": {
					"uv": [
						0,
						14.999407196044922,
						1.4987584114074708,
						15.997063732147216
					],
					"texture": "#0"
				},
				"south": {
					"uv": [
						0,
						14.999407196044922,
						1.4987584114074708,
						15.997063732147216
					],
					"texture": "#0"
				},
				"west": {
					"uv": [
						0,
						14.999407196044922,
						1.4987584114074708,
						15.997063732147216
					],
					"texture": "#0"
				},
				"up": {
					"uv": [
						0,
						14.999407196044922,
						1.4987584114074708,
						15.997063732147216
					],
					"texture": "#0"
				},
				"down": {
					"uv": [
						0,
						14.999407196044922,
						1.4987584114074708,
						15.997063732147216
					],
					"texture": "#0"
				}
			},
			"type": "cube"
		},
		{
			"name": "cube",
			"from": [4, 1.700000000000001, 2.8000000000000007],
			"to": [12, 2.75, 7],
			"faces": {
				"north": {
					"uv": [
						8.00055923461914,
						0,
						16,
						0.9976565361022949
					],
					"texture": "#0"
				},
				"east": {
					"uv": [
						8.00055923461914,
						0,
						16,
						0.9976565361022949
					],
					"texture": "#0"
				},
				"south": {
					"uv": [
						8.00055923461914,
						0,
						16,
						0.9976565361022949
					],
					"texture": "#0"
				},
				"west": {
					"uv": [
						8.00055923461914,
						0,
						16,
						0.9976565361022949
					],
					"texture": "#0"
				},
				"up": {
					"uv": [
						8.00055923461914,
						0,
						16,
						0.9976565361022949
					],
					"texture": "#0"
				},
				"down": {
					"uv": [
						8.00055923461914,
						0,
						16,
						0.9976565361022949
					],
					"texture": "#0"
				}
			},
			"type": "cube"
		},
		{
			"name": "cube",
			"from": [4, 11.700000000000001, 2.8000000000000007],
			"to": [12, 12.75, 7],
			"faces": {
				"north": {
					"uv": [
						8.00055923461914,
						0,
						16,
						0.9976565361022949
					],
					"texture": "#0"
				},
				"east": {
					"uv": [
						8.00055923461914,
						0,
						16,
						0.9976565361022949
					],
					"texture": "#0"
				},
				"south": {
					"uv": [
						8.00055923461914,
						0,
						16,
						0.9976565361022949
					],
					"texture": "#0"
				},
				"west": {
					"uv": [
						8.00055923461914,
						0,
						16,
						0.9976565361022949
					],
					"texture": "#0"
				},
				"up": {
					"uv": [
						8.00055923461914,
						0,
						16,
						0.9976565361022949
					],
					"texture": "#0"
				},
				"down": {
					"uv": [
						8.00055923461914,
						0,
						16,
						0.9976565361022949
					],
					"texture": "#0"
				}
			},
			"type": "cube"
		},
		{
			"name": "cube",
			"from": [4, 2.6999999999999993, 2.8000000000000007],
			"to": [12, 11.75, 7],
			"faces": {
				"north": {
					"uv": [0, 0, 5.998671340942383, 7.499248504638672],
					"texture": "#0"
				},
				"east": {
					"uv": [0, 0, 5.998671340942383, 7.499248504638672],
					"texture": "#0"
				},
				"south": {
					"uv": [0, 0, 5.998671340942383, 7.499248504638672],
					"texture": "#0"
				},
				"west": {
					"uv": [0, 0, 5.998671340942383, 7.499248504638672],
					"texture": "#0"
				},
				"up": {
					"uv": [0, 0, 5.998671340942383, 7.499248504638672],
					"texture": "#0"
				},
				"down": {
					"uv": [0, 0, 5.998671340942383, 7.499248504638672],
					"texture": "#0"
				}
			},
			"type": "cube"
		},
		{
			"name": "cube",
			"from": [12, 1, 3],
			"to": [13, 15, 4],
			"faces": {
				"north": {
					"uv": [
						14.999407148361206,
						0,
						15.997973108291626,
						7.999440765380859
					],
					"texture": "#0"
				},
				"east": {
					"uv": [
						13.999932050704956,
						0,
						14.998498010635377,
						7.999440765380859
					],
					"texture": "#0"
				},
				"south": {
					"uv": [
						14.999407148361206,
						0,
						15.997973108291626,
						7.999440765380859
					],
					"texture": "#0"
				},
				"west": {
					"uv": [
						14.999407148361206,
						0,
						15.997973108291626,
						7.999440765380859
					],
					"texture": "#0"
				},
				"up": {
					"uv": [
						14.999407148361206,
						0,
						15.997973108291626,
						7.999440765380859
					],
					"texture": "#0"
				},
				"down": {
					"uv": [
						14.999407148361206,
						0,
						15.997973108291626,
						7.999440765380859
					],
					"texture": "#0"
				}
			},
			"type": "cube"
		},
		{
			"name": "cube",
			"from": [3, 1, 3],
			"to": [4, 15, 4],
			"faces": {
				"north": {
					"uv": [
						13.999932050704956,
						0,
						14.998498010635377,
						7.999440765380859
					],
					"texture": "#0"
				},
				"east": {
					"uv": [
						13.999932050704956,
						0,
						14.998498010635377,
						7.999440765380859
					],
					"texture": "#0"
				},
				"south": {
					"uv": [
						13.999932050704956,
						0,
						14.998498010635377,
						7.999440765380859
					],
					"texture": "#0"
				},
				"west": {
					"uv": [
						13.999932050704956,
						0,
						14.998498010635377,
						7.999440765380859
					],
					"texture": "#0"
				},
				"up": {
					"uv": [
						13.999932050704956,
						0,
						14.998498010635377,
						7.999440765380859
					],
					"texture": "#0"
				},
				"down": {
					"uv": [
						13.999932050704956,
						0,
						14.998498010635377,
						7.999440765380859
					],
					"texture": "#0"
				}
			},
			"type": "cube"
		},
		{
			"name": "cube",
			"from": [12, 15, 12],
			"to": [13, 23, 13],
			"faces": {
				"north": {
					"uv": [
						10.499494123458863,
						0,
						11.498060083389284,
						5.998671340942383
					],
					"texture": "#0"
				},
				"east": {
					"uv": [
						10.499494123458863,
						0,
						11.498060083389284,
						5.998671340942383
					],
					"texture": "#0"
				},
				"south": {
					"uv": [
						10.499494123458863,
						0,
						11.498060083389284,
						5.998671340942383
					],
					"texture": "#0"
				},
				"west": {
					"uv": [
						10.499494123458863,
						0,
						11.498060083389284,
						5.998671340942383
					],
					"texture": "#0"
				},
				"up": {
					"uv": [
						10.499494123458863,
						0,
						11.498060083389284,
						5.998671340942383
					],
					"texture": "#0"
				},
				"down": {
					"uv": [
						10.499494123458863,
						0,
						11.498060083389284,
						5.998671340942383
					],
					"texture": "#0"
				}
			},
			"type": "cube"
		},
		{
			"name": "cube",
			"from": [3, 15, 12],
			"to": [4, 23, 13],
			"faces": {
				"north": {
					"uv": [
						9.499108839035035,
						0,
						10.497674798965456,
						5.998671340942383
					],
					"texture": "#0"
				},
				"east": {
					"uv": [
						9.499108839035035,
						0,
						10.497674798965456,
						5.998671340942383
					],
					"texture": "#0"
				},
				"south": {
					"uv": [
						9.499108839035035,
						0,
						10.497674798965456,
						5.998671340942383
					],
					"texture": "#0"
				},
				"west": {
					"uv": [
						9.499108839035035,
						0,
						10.497674798965456,
						5.998671340942383
					],
					"texture": "#0"
				},
				"up": {
					"uv": [
						9.499108839035035,
						0,
						10.497674798965456,
						5.998671340942383
					],
					"texture": "#0"
				},
				"down": {
					"uv": [
						9.499108839035035,
						0,
						10.497674798965456,
						5.998671340942383
					],
					"texture": "#0"
				}
			},
			"type": "cube"
		},
		{
			"name": "cube",
			"from": [12, 1, 12],
			"to": [13, 15, 13],
			"faces": {
				"north": {
					"uv": [
						14.499214887619019,
						0,
						15.49778084754944,
						7.999440765380859
					],
					"texture": "#0"
				},
				"east": {
					"uv": [
						14.499214887619019,
						0,
						15.49778084754944,
						7.999440765380859
					],
					"texture": "#0"
				},
				"south": {
					"uv": [
						14.499214887619019,
						0,
						15.49778084754944,
						7.999440765380859
					],
					"texture": "#0"
				},
				"west": {
					"uv": [
						14.499214887619019,
						0,
						15.49778084754944,
						7.999440765380859
					],
					"texture": "#0"
				},
				"up": {
					"uv": [
						14.499214887619019,
						0,
						15.49778084754944,
						7.999440765380859
					],
					"texture": "#0"
				},
				"down": {
					"uv": [
						14.499214887619019,
						0,
						15.49778084754944,
						7.999440765380859
					],
					"texture": "#0"
				}
			},
			"type": "cube"
		},
		{
			"name": "cube",
			"from": [3, 1, 12],
			"to": [4, 15, 13],
			"faces": {
				"north": {
					"uv": [
						11.9991614818573,
						0,
						12.99772744178772,
						7.999440765380859
					],
					"texture": "#0"
				},
				"east": {
					"uv": [
						11.9991614818573,
						0,
						12.99772744178772,
						7.999440765380859
					],
					"texture": "#0"
				},
				"south": {
					"uv": [
						11.9991614818573,
						0,
						12.99772744178772,
						7.999440765380859
					],
					"texture": "#0"
				},
				"west": {
					"uv": [
						11.9991614818573,
						0,
						12.99772744178772,
						7.999440765380859
					],
					"texture": "#0"
				},
				"up": {
					"uv": [
						11.9991614818573,
						0,
						12.99772744178772,
						7.999440765380859
					],
					"texture": "#0"
				},
				"down": {
					"uv": [
						11.9991614818573,
						0,
						12.99772744178772,
						7.999440765380859
					],
					"texture": "#0"
				}
			},
			"type": "cube"
		},
		{
			"name": "cube",
			"from": [4, 1, 3],
			"to": [12, 15, 13],
			"faces": {
				"north": {
					"uv": [0, 0, 4.499003601074219, 7.999440765380859],
					"texture": "#0"
				},
				"east": {
					"uv": [0, 0, 4.499003601074219, 7.999440765380859],
					"texture": "#0"
				},
				"south": {
					"uv": [0, 0, 4.499003601074219, 7.999440765380859],
					"texture": "#0"
				},
				"west": {
					"uv": [0, 0, 4.499003601074219, 7.999440765380859],
					"texture": "#0"
				},
				"up": {
					"uv": [0, 0, 4.499003601074219, 7.999440765380859],
					"texture": "#0"
				},
				"down": {
					"uv": [0, 0, 4.499003601074219, 7.999440765380859],
					"texture": "#0"
				}
			},
			"type": "cube"
		},
		{
			"name": "cube",
			"from": [3, 1, 4],
			"to": [13, 15, 12],
			"faces": {
				"north": {
					"uv": [0, 0, 4.499003601074219, 7.999440765380859],
					"texture": "#0"
				},
				"east": {
					"uv": [0, 0, 4.499003601074219, 7.999440765380859],
					"texture": "#0"
				},
				"south": {
					"uv": [0, 0, 4.499003601074219, 7.999440765380859],
					"texture": "#0"
				},
				"west": {
					"uv": [0, 0, 4.499003601074219, 7.999440765380859],
					"texture": "#0"
				},
				"up": {
					"uv": [0, 0, 4.499003601074219, 7.999440765380859],
					"texture": "#0"
				},
				"down": {
					"uv": [0, 0, 4.499003601074219, 7.999440765380859],
					"texture": "#0"
				}
			},
			"type": "cube"
		}
	],
	"display": {}
}