{
	"credit": "Made with Blockbench, a free, modern block model editor by JannisX11",
	"textures": {
		"particle": "#0"
	},
	"elements": [
		{
			"name": "cube",
			"from": [2, 3, 3],
			"to": [3, 11, 13],
			"faces": {
				"north": {
					"uv": [0, 0, 7.998531341552734, 1],
					"texture": "#0",
					"rotation": 90
				},
				"east": {
					"uv": [0, 0, 7.998531341552734, 5.997761917114258],
					"texture": "#0"
				},
				"south": {
					"uv": [0, 0, 7.998531341552734, 1],
					"texture": "#0",
					"rotation": 90
				},
				"west": {
					"uv": [0, 0, 7.998531341552734, 5.997761917114258],
					"texture": "#0"
				},
				"up": {
					"uv": [0, 0, 7.998531341552734, 1],
					"texture": "#0",
					"rotation": 90
				},
				"down": {
					"uv": [0, 0, 7.998531341552734, 1],
					"texture": "#0",
					"rotation": 90
				}
			},
			"type": "cube"
		},
		{
			"name": "cube",
			"from": [2, 13, 4],
			"to": [4, 14, 12],
			"faces": {
				"north": {
					"uv": [0, 0, 7.998531341552734, 1.99713191986084],
					"texture": "#0",
					"rotation": 90
				},
				"east": {
					"uv": [
						0,
						0,
						7.998531341552734,
						0.9967471122741699
					],
					"texture": "#0"
				},
				"south": {
					"uv": [0, 0, 7.998531341552734, 1.99713191986084],
					"texture": "#0",
					"rotation": 90
				},
				"west": {
					"uv": [
						0,
						0,
						7.998531341552734,
						0.9967471122741699
					],
					"texture": "#0"
				},
				"up": {
					"uv": [0, 0, 7.998531341552734, 1.99713191986084],
					"texture": "#0",
					"rotation": 270
				},
				"down": {
					"uv": [0, 0, 7.998531341552734, 1.99713191986084],
					"texture": "#0",
					"rotation": 90
				}
			},
			"type": "cube"
		},
		{
			"name": "cube",
			"from": [12, 13, 4],
			"to": [14, 14, 12],
			"faces": {
				"north": {
					"uv": [0, 0, 7.998531341552734, 1.99713191986084],
					"texture": "#0",
					"rotation": 90
				},
				"east": {
					"uv": [
						0,
						0,
						7.998531341552734,
						0.9967471122741699
					],
					"texture": "#0"
				},
				"south": {
					"uv": [0, 0, 7.998531341552734, 1.99713191986084],
					"texture": "#0",
					"rotation": 90
				},
				"west": {
					"uv": [
						0,
						0,
						7.998531341552734,
						0.9967471122741699
					],
					"texture": "#0"
				},
				"up": {
					"uv": [0, 0, 7.998531341552734, 1.99713191986084],
					"texture": "#0",
					"rotation": 90
				},
				"down": {
					"uv": [0, 0, 7.998531341552734, 1.99713191986084],
					"texture": "#0",
					"rotation": 90
				}
			},
			"type": "cube"
		},
		{
			"name": "cube",
			"from": [2, 13, 2],
			"to": [14, 14, 4],
			"faces": {
				"north": {
					"uv": [
						0,
						0,
						7.998531341552734,
						0.9967471122741699
					],
					"texture": "#0"
				},
				"east": {
					"uv": [0, 0, 0.9976565361022949, 1.99713191986084],
					"texture": "#0"
				},
				"south": {
					"uv": [
						0,
						0,
						7.998531341552734,
						0.9967471122741699
					],
					"texture": "#0"
				},
				"west": {
					"uv": [0, 0, 0.9976565361022949, 1.99713191986084],
					"texture": "#0"
				},
				"up": {
					"uv": [0, 0, 7.998531341552734, 1.99713191986084],
					"texture": "#0",
					"rotation": 180
				},
				"down": {
					"uv": [0, 0, 7.998531341552734, 1.99713191986084],
					"texture": "#0"
				}
			},
			"type": "cube"
		},
		{
			"name": "cube",
			"from": [2, 13, 12],
			"to": [14, 14, 14],
			"faces": {
				"north": {
					"uv": [
						0,
						0,
						7.998531341552734,
						0.9967471122741699
					],
					"texture": "#0"
				},
				"east": {
					"uv": [0, 0, 0.9976565361022949, 1.99713191986084],
					"texture": "#0"
				},
				"south": {
					"uv": [
						0,
						0,
						7.998531341552734,
						0.9967471122741699
					],
					"texture": "#0"
				},
				"west": {
					"uv": [0, 0, 0.9976565361022949, 1.99713191986084],
					"texture": "#0"
				},
				"up": {
					"uv": [0, 0, 7.998531341552734, 1.99713191986084],
					"texture": "#0"
				},
				"down": {
					"uv": [0, 0, 7.998531341552734, 1.99713191986084],
					"texture": "#0"
				}
			},
			"type": "cube"
		},
		{
			"name": "cube",
			"from": [4, 11, 12],
			"to": [12, 13, 13],
			"faces": {
				"north": {
					"uv": [0, 0, 7.998531341552734, 1.99713191986084],
					"texture": "#0"
				},
				"east": {
					"uv": [0, 0, 7.998531341552734, 1.99713191986084],
					"texture": "#0"
				},
				"south": {
					"uv": [0, 0, 7.998531341552734, 1.99713191986084],
					"texture": "#0"
				},
				"west": {
					"uv": [0, 0, 7.998531341552734, 1.99713191986084],
					"texture": "#0"
				},
				"up": {
					"uv": [0, 0, 7.998531341552734, 1.99713191986084],
					"texture": "#0"
				},
				"down": {
					"uv": [0, 0, 7.998531341552734, 1.99713191986084],
					"texture": "#0"
				}
			},
			"type": "cube"
		},
		{
			"name": "cube",
			"from": [4, 11, 3],
			"to": [12, 13, 4],
			"faces": {
				"north": {
					"uv": [0, 0, 7.998531341552734, 1.99713191986084],
					"texture": "#0"
				},
				"east": {
					"uv": [0, 0, 7.998531341552734, 1.99713191986084],
					"texture": "#0"
				},
				"south": {
					"uv": [0, 0, 7.998531341552734, 1.99713191986084],
					"texture": "#0"
				},
				"west": {
					"uv": [0, 0, 7.998531341552734, 1.99713191986084],
					"texture": "#0"
				},
				"up": {
					"uv": [0, 0, 7.998531341552734, 1.99713191986084],
					"texture": "#0"
				},
				"down": {
					"uv": [0, 0, 7.998531341552734, 1.99713191986084],
					"texture": "#0"
				}
			},
			"type": "cube"
		},
		{
			"name": "cube",
			"from": [3, 11, 3],
			"to": [4, 13, 13],
			"faces": {
				"north": {
					"uv": [
						6.999965620040894,
						0,
						7.997622156143189,
						2.9966073989868165
					],
					"texture": "#0"
				},
				"east": {
					"uv": [0, 0, 7.998531341552734, 1.99713191986084],
					"texture": "#0"
				},
				"south": {
					"uv": [
						0,
						0,
						0.9976565361022949,
						2.9966073989868165
					],
					"texture": "#0"
				},
				"west": {
					"uv": [0, 0, 7.998531341552734, 1.99713191986084],
					"texture": "#0"
				},
				"up": {
					"uv": [0, 0, 7.998531341552734, 1.99713191986084],
					"texture": "#0"
				},
				"down": {
					"uv": [0, 0, 7.998531341552734, 1.99713191986084],
					"texture": "#0"
				}
			},
			"type": "cube"
		},
		{
			"name": "cube",
			"from": [12, 11, 3],
			"to": [13, 13, 13],
			"faces": {
				"north": {
					"uv": [
						0,
						0,
						0.9976565361022949,
						2.9966073989868165
					],
					"texture": "#0"
				},
				"east": {
					"uv": [0, 0, 7.998531341552734, 1.99713191986084],
					"texture": "#0"
				},
				"south": {
					"uv": [
						6.999965620040894,
						0,
						7.997622156143189,
						2.9966073989868165
					],
					"texture": "#0"
				},
				"west": {
					"uv": [0, 0, 7.998531341552734, 1.99713191986084],
					"texture": "#0"
				},
				"up": {
					"uv": [0, 0, 7.998531341552734, 1.99713191986084],
					"texture": "#0"
				},
				"down": {
					"uv": [0, 0, 7.998531341552734, 1.99713191986084],
					"texture": "#0"
				}
			},
			"type": "cube"
		},
		{
			"name": "cube",
			"from": [13, 3, 3],
			"to": [14, 11, 13],
			"faces": {
				"north": {
					"uv": [0, 0, 7.998531341552734, 1],
					"texture": "#0",
					"rotation": 90
				},
				"east": {
					"uv": [0, 0, 7.998531341552734, 5.997761917114258],
					"texture": "#0"
				},
				"south": {
					"uv": [0, 0, 7.998531341552734, 1],
					"texture": "#0",
					"rotation": 90
				},
				"west": {
					"uv": [0, 0, 7.998531341552734, 5.997761917114258],
					"texture": "#0"
				},
				"up": {
					"uv": [0, 0, 7.998531341552734, 1],
					"texture": "#0",
					"rotation": 90
				},
				"down": {
					"uv": [0, 0, 7.998531341552734, 1],
					"texture": "#0",
					"rotation": 90
				}
			},
			"type": "cube"
		},
		{
			"name": "cube",
			"from": [3, 3, 2],
			"to": [13, 11, 3],
			"faces": {
				"north": {
					"uv": [0, 0, 7.998531341552734, 5.997761917114258],
					"texture": "#0"
				},
				"east": {
					"uv": [0, 0, 7.998531341552734, 1],
					"texture": "#0",
					"rotation": 90
				},
				"south": {
					"uv": [0, 0, 7.998531341552734, 0.5],
					"texture": "#0"
				},
				"west": {
					"uv": [0, 0, 7.998531341552734, 1],
					"texture": "#0",
					"rotation": 90
				},
				"up": {
					"uv": [0, 0, 7.998531341552734, 1],
					"texture": "#0"
				},
				"down": {
					"uv": [0, 0, 7.998531341552734, 1],
					"texture": "#0"
				}
			},
			"type": "cube"
		},
		{
			"name": "cube",
			"from": [3, 3, 13],
			"to": [13, 11, 14],
			"faces": {
				"north": {
					"uv": [0, 0, 7.998531341552734, 5.997761917114258],
					"texture": "#0"
				},
				"east": {
					"uv": [0, 0, 7.998531341552734, 1],
					"texture": "#0",
					"rotation": 90
				},
				"south": {
					"uv": [0, 0, 7.998531341552734, 5.997761917114258],
					"texture": "#0"
				},
				"west": {
					"uv": [0, 0, 7.998531341552734, 1],
					"texture": "#0",
					"rotation": 90
				},
				"up": {
					"uv": [0, 0, 7.998531341552734, 1],
					"texture": "#0"
				},
				"down": {
					"uv": [0, 0, 7.998531341552734, 1],
					"texture": "#0"
				}
			},
			"type": "cube"
		},
		{
			"name": "cube",
			"from": [3, 2, 3],
			"to": [13, 3, 13],
			"faces": {
				"north": {
					"uv": [0, 0, 7.998531341552734, 1],
					"texture": "#0"
				},
				"east": {
					"uv": [0, 0, 7.998531341552734, 1],
					"texture": "#0"
				},
				"south": {
					"uv": [0, 0, 7.998531341552734, 1],
					"texture": "#0"
				},
				"west": {
					"uv": [0, 0, 7.998531341552734, 1],
					"texture": "#0"
				},
				"up": {
					"uv": [0, 0, 7.998531341552734, 7.998531341552734],
					"texture": "#0"
				},
				"down": {
					"uv": [0, 0, 7.998531341552734, 7.998531341552734],
					"texture": "#0"
				}
			},
			"type": "cube"
		},
		{
			"name": "cube",
			"from": [-0.25, 9.25, 7.25],
			"to": [2, 10.75, 8.75],
			"faces": {
				"north": {
					"uv": [
						0.49928297996521,
						8.999826812744141,
						2.7492394924163817,
						10.499494647979736
					],
					"texture": "#0"
				},
				"east": {
					"uv": [
						0.49928297996521,
						8.999826812744141,
						2.7492394924163817,
						10.499494647979736
					],
					"texture": "#0"
				},
				"south": {
					"uv": [
						0.49928297996521,
						8.999826812744141,
						2.7492394924163817,
						10.499494647979736
					],
					"texture": "#0"
				},
				"west": {
					"uv": [
						0.49928297996521,
						8.999826812744141,
						2.7492394924163817,
						10.499494647979736
					],
					"texture": "#0"
				},
				"up": {
					"uv": [
						0.49928297996521,
						8.999826812744141,
						2.7492394924163817,
						10.499494647979736
					],
					"texture": "#0"
				},
				"down": {
					"uv": [
						0.49928297996521,
						8.999826812744141,
						2.7492394924163817,
						10.499494647979736
					],
					"texture": "#0"
				}
			},
			"type": "cube"
		},
		{
			"name": "cube",
			"from": [14, 9.25, 7.25],
			"to": [16.25, 10.75, 8.75],
			"faces": {
				"north": {
					"uv": [
						0.49928297996521,
						8.999826812744141,
						2.7492394924163817,
						10.499494647979736
					],
					"texture": "#0"
				},
				"east": {
					"uv": [
						0.49928297996521,
						8.999826812744141,
						2.7492394924163817,
						10.499494647979736
					],
					"texture": "#0"
				},
				"south": {
					"uv": [
						0.49928297996521,
						8.999826812744141,
						2.7492394924163817,
						10.499494647979736
					],
					"texture": "#0"
				},
				"west": {
					"uv": [
						0.49928297996521,
						8.999826812744141,
						2.7492394924163817,
						10.499494647979736
					],
					"texture": "#0"
				},
				"up": {
					"uv": [
						0.49928297996521,
						8.999826812744141,
						2.7492394924163817,
						10.499494647979736
					],
					"texture": "#0"
				},
				"down": {
					"uv": [
						0.49928297996521,
						8.999826812744141,
						2.7492394924163817,
						10.499494647979736
					],
					"texture": "#0"
				}
			},
			"type": "cube"
		},
		{
			"name": "cube",
			"from": [15, 0, 7],
			"to": [16, 16, 9],
			"faces": {
				"north": {
					"uv": [
						13.999932050704956,
						0,
						14.999407434463501,
						7.999440765380859
					],
					"texture": "#0"
				},
				"east": {
					"uv": [
						8.999826002120972,
						0,
						10.499493837356567,
						7.999440765380859
					],
					"texture": "#0"
				},
				"south": {
					"uv": [
						14.499214887619019,
						0,
						15.498690271377564,
						7.999440765380859
					],
					"texture": "#0"
				},
				"west": {
					"uv": [
						12.999546003341674,
						0,
						14.499213838577269,
						7.999440765380859
					],
					"texture": "#0"
				},
				"up": {
					"uv": [
						14.499214887619019,
						0,
						15.498690271377564,
						0.99856595993042
					],
					"texture": "#0"
				},
				"down": {
					"uv": [
						14.998497724533081,
						6.499773406982422,
						15.997063684463502,
						7.497429943084717
					],
					"texture": "#0"
				}
			},
			"type": "cube"
		},
		{
			"name": "cube",
			"from": [0, 0, 7],
			"to": [1, 16, 9],
			"faces": {
				"north": {
					"uv": [
						12.999546003341674,
						0,
						13.99902138710022,
						7.999440765380859
					],
					"texture": "#0"
				},
				"east": {
					"uv": [
						11.499878644943237,
						0,
						12.999546480178832,
						7.999440765380859
					],
					"texture": "#0"
				},
				"south": {
					"uv": [
						9.999301099777222,
						0,
						10.998776483535767,
						7.999440765380859
					],
					"texture": "#0"
				},
				"west": {
					"uv": [
						11.499878644943237,
						0,
						12.999546480178832,
						7.999440765380859
					],
					"texture": "#0"
				},
				"up": {
					"uv": [
						14.998497724533081,
						6.499773406982422,
						15.997063684463502,
						7.497429943084717
					],
					"texture": "#0"
				},
				"down": {
					"uv": [
						14.499214887619019,
						0,
						15.498690271377564,
						0.99856595993042
					],
					"texture": "#0"
				}
			},
			"type": "cube"
		}
	],
	"display": {
		"head": {
			"scale": [4, 4, 4],
			"translation": [0, -13, 0]
		},
		"thirdperson_righthand": {
			"scale": [0.375, 0.375, 0.375],
			"rotation": [75, 45, 0],
			"translation": [0, 2.5, 0]
		},
		"thirdperson_lefthand": {
			"scale": [0.375, 0.375, 0.375],
			"rotation": [75, 45, 0],
			"translation": [0, 2.5, 0]
		},
		"firstperson_righthand": {
			"scale": [0.4, 0.4, 0.4],
			"rotation": [0, -38, 0],
			"translation": [0, 2, 0]
		},
		"firstperson_lefthand": {
			"scale": [0.4, 0.4, 0.4],
			"rotation": [0, 134, 0],
			"translation": [0, 2, 0]
		},
		"ground": {
			"scale": [0.5, 0.5, 0.5],
			"rotation": [0, 0, 0],
			"translation": [0, 2, 0]
		},
		"gui": {
			"scale": [0.625, 0.625, 0.625],
			"rotation": [30, 225, 0],
			"translation": [0, 0, 0]
		}
	}
}